5 Text Mining from STAT 613 | STAT 312 - Introduction to Data Science Applications
…
#> [10] "near the fire"                                
#> [11] "the impalpable ash"                           
#> [12] "or the wrinkled body of the log,"             
#> [13] "everything carries me to you,"                
#> [14] "as if everything that exists,"                
#> [15] "aromas, light, metals,"                       
#> [16] "were little boats"                            
#> [17] "that sail"                                    
#> [18] "toward those isles of yours that wait for me."
text_df <- tibble(
  line = 1:length(text),
  text = text
)
text_df
#> # A tibble: 18 x 2
#>    line text                 
#>   <int> <chr>                
#> 1     1 If You Forget Me     
#> 2     2 by Pablo Neruda      
#> 3     3 I want you to know   
#> 4     4 one thing.           
#> 5     5 You know how this is:
#> 6     6 if I look            
#> # ... with 12 more rows
text_df %>%
  unnest_tokens(word, text)
#> # A tibble: 80 x 2
#>    line word  
#>   <int> <chr> 
#> 1     1 if    
#> 2     1 you   
#> 3     1 forget
#> 4     1 me    
#> 5     2 by    
#> 6     2 pablo 
#> # ... with 74 more rows
…
Section 1.3 in online book. Then watch this video as you work through this section.

Let’s look at a larger text, say all of Jane Austen’s novels.

orig_books <- austen_books() %>%
  group_by(book) %>%
  mutate(linenumber = row_number(),
         chapter = cumsum(str_detect(text, 
             regex("^chapter [\\divxlc]", 
                   ignore_case = TRUE)))) %>%
  ungroup() %>%
  select(chapter, linenumber, everything())
orig_books
#> # A tibble: 73,422 x 4
#>   chapter linenumber text                    book               
#>     <int>      <int> <chr>                   <fct>              
#> 1       0          1 "SENSE AND SENSIBILITY" Sense & Sensibility
#> 2       0          2 ""                      Sense & Sensibility
#> 3       0          3 "by Jane Austen"        Sense & Sensibility
#> 4       0          4 ""                      Sense & Sensibility
#> 5       0          5 "(1811)"                Sense & Sensibility
#> 6       0          6 ""                      Sense & Sensibility
#> # ... with 73,416 more rows

#  make data tidy
tidy_books <- orig_books %>%
  unnest_tokens(word, text) %>%
  # use str_extract because some gutenberg texts have other symbols around
  # the words as part of the encoding
  mutate(word = str_extract(word, "[a-z']+")) %>%
  anti_join(stop_words)
#> Joining, by = "word"

tidy_books %>%
  count(word, sort = TRUE)
#> # A tibble: 13,464 x 2
#>   word      n
#> * <chr> <int>
#> 1 miss   1860
#> 2 time   1339
#> 3 fanny   862
#> 4 dear    822
#> 5 lady    819
#> 6 sir     807
#> # ... with 13,458 more rows
…
#> Call `lifecycle::last_warnings()` to see where this warning was generated.
bronte <- gutenberg_download(c(767, 768, 969, 1260, 9182))
tidy_hgwells <- hgwells %>%
  unnest_tokens(word, text) %>%
  mutate(word = str_extract(word, "[a-z']+")) %>%
  anti_join(stop_words)
#> Joining, by = "word"
tidy_bronte <- bronte %>%
  unnest_tokens(word, text) %>%
  mutate(word = str_extract(word, "[a-z']+")) %>%
  anti_join(stop_words)
#> Joining, by = "word"
tidy_hgwells %>%
  count(word, sort = TRUE)
#> # A tibble: 11,648 x 2
#>   word       n
#> * <chr>  <int>
#> 1 time     454
#> 2 people   302
#> 3 door     260
#> 4 heard    249
#> 5 black    232
#> 6 stood    229
#> # ... with 11,642 more rows
tidy_bronte %>%
  count(word, sort = TRUE)
#> # A tibble: 22,516 x 2
#>   word      n
#> * <chr> <int>
#> 1 time   1065
#> 2 miss    856
#> 3 day     828
#> 4 hand    768
#> 5 eyes    713
#> 6 night   647
#> # ... with 22,510 more rows

Put all three authors together in one tibble with a new column showing author.

frequency_by_word_across_authors <- bind_rows(mutate(tidy_bronte,
                 author = "Bronte"),
                 mutate(tidy_hgwells, author = "Wells"),
                 mutate(tidy_books, author = "Austen")) %>%
            mutate(word = str_extract(word, "[a-z']+")) %>%
            count(author, word) %>%
            group_by(author) %>%
            mutate(proportion = n / sum(n)) %>%
            select(-n) %>%
            spread(author, proportion)
frequency_by_word_across_authors
#> # A tibble: 28,678 x 4
#>   word           Austen      Bronte      Wells
#>   <chr>           <dbl>       <dbl>      <dbl>
#> 1 a'most    NA           0.0000160  NA        
#> 2 a'n't      0.00000462 NA          NA        
#> 3 aback     NA           0.00000400  0.0000150
#> 4 abaht     NA           0.00000400 NA        
#> 5 abandon   NA           0.0000320   0.0000150
#> 6 abandoned  0.00000462  0.0000920   0.000180 
#> # ... with 28,672 more rows
frequency <- frequency_by_word_across_authors %>%
            gather(author, proportion, `Bronte`:`Wells`)
frequency
#> # A tibble: 57,356 x 4
#>   word           Austen author  proportion
#>   <chr>           <dbl> <chr>        <dbl>
#> 1 a'most    NA          Bronte  0.0000160 
#> 2 a'n't      0.00000462 Bronte NA         
#> 3 aback     NA          Bronte  0.00000400
#> 4 abaht     NA          Bronte  0.00000400
#> 5 abandon   NA          Bronte  0.0000320 
#> 6 abandoned  0.00000462 Bronte  0.0000920 
#> # ... with 57,350 more rows
…
We can tell that Austen and Bronte are more similar (grouped closer to the line) than Austen and Wells. Let’s use a correlation test to quantify the amounts.

df_Bronte <- frequency[frequency$author == "Bronte",]
df_Bronte
#> # A tibble: 28,678 x 4
#>   word           Austen author  proportion
#>   <chr>           <dbl> <chr>        <dbl>
#> 1 a'most    NA          Bronte  0.0000160 
#> 2 a'n't      0.00000462 Bronte NA         
#> 3 aback     NA          Bronte  0.00000400
#> 4 abaht     NA          Bronte  0.00000400
#> 5 abandon   NA          Bronte  0.0000320 
#> 6 abandoned  0.00000462 Bronte  0.0000920 
#> # ... with 28,672 more rows
cor.test(data = df_Bronte,  ~ proportion + `Austen`)
#> 
#>  Pearson's product-moment correlation
#> 
#> data:  proportion and Austen
#> t = 119, df = 10299, p-value <2e-16
#> alternative hypothesis: true correlation is not equal to 0
#> 95 percent confidence interval:
#>  0.753 0.769
#> sample estimates:
#>   cor 
#> 0.761
df_Wells <- frequency[frequency$author == "Wells",]
df_Wells
#> # A tibble: 28,678 x 4
#>   word           Austen author proportion
#>   <chr>           <dbl> <chr>       <dbl>
#> 1 a'most    NA          Wells  NA        
#> 2 a'n't      0.00000462 Wells  NA        
#> 3 aback     NA          Wells   0.0000150
#> 4 abaht     NA          Wells  NA        
#> 5 abandon   NA          Wells   0.0000150
#> 6 abandoned  0.00000462 Wells   0.000180 
#> # ... with 28,672 more rows
…
Exercise 2: Pick three other authors from Gutenberg.org and download their works. Compare the authors. Which two are more alike? Some suggestions if you can’t think of any: Mark Twain, Leo Tolstoy, Charles Dickens.

#> Warning: `filter_()` is deprecated as of dplyr 0.7.0.
#> Please use `filter()` instead.
#> See vignette('programming') for more help
#> This warning is displayed once every 8 hours.
#> Call `lifecycle::last_warnings()` to see where this warning was generated.
#> Warning: `distinct_()` is deprecated as of dplyr 0.7.0.
#> Please use `distinct()` instead.
#> See vignette('programming') for more help
#> This warning is displayed once every 8 hours.
#> Call `lifecycle::last_warnings()` to see where this warning was generated.
#> Joining, by = "word"
#> Joining, by = "word"
#> # A tibble: 61,913 x 4
#>   word      Austen Bronte       Wells
#>   <chr>      <dbl>  <dbl>       <dbl>
#> 1 '             NA     NA 0.00000126 
#> 2 a'ch          NA     NA 0.000000628
#> 3 a'chitect     NA     NA 0.00000126 
#> 4 a'eplane      NA     NA 0.000000628
#> 5 a'hm          NA     NA 0.000000628
#> 6 a'll          NA     NA 0.00000188 
#> # ... with 61,907 more rows
#> # A tibble: 123,826 x 4
#>   word      Austen author proportion
#>   <chr>      <dbl> <chr>       <dbl>
#> 1 '             NA Bronte         NA
#> 2 a'ch          NA Bronte         NA
#> 3 a'chitect     NA Bronte         NA
#> 4 a'eplane      NA Bronte         NA
#> 5 a'hm          NA Bronte         NA
#> 6 a'll          NA Bronte         NA
#> # ... with 123,820 more rows
#> Warning: Removed 101057 rows containing missing values (geom_point).
#> Warning: Removed 101059 rows containing missing values (geom_text).
#> # A tibble: 61,913 x 4
#>   word      Austen author proportion
#>   <chr>      <dbl> <chr>       <dbl>
#> 1 '             NA Bronte         NA
#> 2 a'ch          NA Bronte         NA
#> 3 a'chitect     NA Bronte         NA
#> 4 a'eplane      NA Bronte         NA
#> 5 a'hm          NA Bronte         NA
#> 6 a'll          NA Bronte         NA
#> # ... with 61,907 more rows
#> 
#>  Pearson's product-moment correlation
#> 
#> data:  proportion and Austen
#> t = 119, df = 10914, p-value <2e-16
#> alternative hypothesis: true correlation is not equal to 0
#> 95 percent confidence interval:
#>  0.742 0.758
#> sample estimates:
#>  cor 
#> 0.75
#> # A tibble: 61,913 x 4
#>   word      Austen author  proportion
#>   <chr>      <dbl> <chr>        <dbl>
#> 1 '             NA Wells  0.00000126 
#> 2 a'ch          NA Wells  0.000000628
#> 3 a'chitect     NA Wells  0.00000126 
#> 4 a'eplane      NA Wells  0.000000628
#> 5 a'hm          NA Wells  0.000000628
#> 6 a'll          NA Wells  0.00000188 
#> # ... with 61,907 more rows
…
